=============================
Refinement and Model Building
=============================

.. toctree::
    :maxdepth: 2

    doc.task.Refmac
    doc.task.Buster.rst
    doc.task.Lorestr
    doc.task.CCP4Build
    doc.task.ModelCraft
    doc.task.ArpWarp
    doc.task.AWNuce
    doc.task.Buccaneer
    doc.task.Nautilus
    doc.task.Dimple
    doc.task.CombStructure
    doc.task.PhaserRB
    doc.task.Sheetbend
    doc.task.PDBREDO
    doc.task.PaiRef

