{
  "Desktop": {
    "clientApp": "open",
    "args": [
      "-a",
      "firefox",
      "$feURL$clientURL"
    ]
  },
  "FrontEnd": {
    "type": "FE",
    "protocol": "http",
    "host": "ccp4serv6.rc-harwell.ac.uk/jscofe-dev/",
    "port": 0,
    "externalURL": "http://ccp4serv6.rc-harwell.ac.uk/jscofe-dev/",
    "exclude_tasks": [],
    "only_tasks": [],
    "storage": "./cofe-projects",
    "update_rcode": 0,
    "startDate": "Wed, 08 Apr 2020 18:24:50 GMT",
    "sessionCheckPeriod": 2000,
    "auth_software": null,
    "exclusive": true,
    "stoppable": true,
    "fsmount": null,
    "userDataPath": "./cofe-users",
    "projectsPath": {
      "***": {
        "path": "./cofe-projects",
        "type": "volume",
        "diskReserve": 10000
      }
    },
    "facilitiesPath": "./cofe-facilities",
    "bootstrapHTML": "./bootstrap/jscofe.html",
    "fileCapSize": 500000,
    "regMode": "admin",
    "ration": {
      "storage": 3000,
      "cpu_day": 24,
      "cpu_month": 240
    },
    "reportURL": "http://ccp4serv6.rc-harwell.ac.uk/jscofe-dev/",
    "dirName": "ccp4cloud_projects",
    "localSetup": false
  },
  "FEProxy": {
    "type": "FEProxy",
    "protocol": "http",
    "host": "localhost",
    "port": 63561,
    "externalURL": "http://localhost:63561",
    "exclude_tasks": [],
    "only_tasks": [],
    "storage": "/Users/eugene/ccp4cloud_data/remote/cofe-client-storage",
    "update_rcode": 0,
    "startDate": "Wed, 08 Apr 2020 18:24:50 GMT",
    "localisation": 1,
    "exclusive": true,
    "stoppable": false
  },
  "NumberCrunchers": [
    {
      "type": "NC0",
      "protocol": "http",
      "host": "localhost",
      "port": 63562,
      "externalURL": "http://localhost:63562",
      "exclude_tasks": [],
      "only_tasks": [],
      "storage": "/Users/eugene/ccp4cloud_data/remote/cofe-client-storage",
      "update_rcode": 0,
      "startDate": "Wed, 08 Apr 2020 18:24:50 GMT",
      "serNo": 1,
      "name": "client",
      "in_use": true,
      "exclusive": true,
      "stoppable": true,
      "fsmount": null,
      "capacity": 4,
      "fasttrack": 1,
      "exeType": "CLIENT",
      "exeData": "",
      "jobCheckPeriod": 2000,
      "sendDataWaitTime": 1000,
      "maxSendTrials": 10,
      "jobRemoveTimeout": 3600000,
      "maxRestarts": 100,
      "fileCapSize": 500000,
      "useRootCA": false,
      "current_capacity": 4,
      "localSetup": true,
      "jobManager": "CLIENT"
    }
  ],
  "Emailer": {
    "type": "desktop",
    "maintainerEmail": "ccp4@ccp4.ac.uk"
  }
}
