<?xml version="1.0" encoding="UTF-8"?>
<svg width="120" height="110" version="1.1" viewBox="0 0 120 110" xmlns="http://www.w3.org/2000/svg" xmlns:xlink="http://www.w3.org/1999/xlink">
 <image width="120" height="110" image-rendering="optimizeQuality" preserveAspectRatio="none" xlink:href="data:image/png;base64,iVBORw0KGgoAAAANSUhEUgAAAHgAAABuCAIAAABjiUADAAAAAXNSR0IArs4c6QAAAVlpVFh0WE1M OmNvbS5hZG9iZS54bXAAAAAAADx4OnhtcG1ldGEgeG1sbnM6eD0iYWRvYmU6bnM6bWV0YS8iIHg6 eG1wdGs9IlhNUCBDb3JlIDUuNC4wIj4KICAgPHJkZjpSREYgeG1sbnM6cmRmPSJodHRwOi8vd3d3 LnczLm9yZy8xOTk5LzAyLzIyLXJkZi1zeW50YXgtbnMjIj4KICAgICAgPHJkZjpEZXNjcmlwdGlv biByZGY6YWJvdXQ9IiIKICAgICAgICAgICAgeG1sbnM6dGlmZj0iaHR0cDovL25zLmFkb2JlLmNv bS90aWZmLzEuMC8iPgogICAgICAgICA8dGlmZjpPcmllbnRhdGlvbj4xPC90aWZmOk9yaWVudGF0 aW9uPgogICAgICA8L3JkZjpEZXNjcmlwdGlvbj4KICAgPC9yZGY6UkRGPgo8L3g6eG1wbWV0YT4K TMInWQAAL9VJREFUeAHtnQd8VUX2x196gUBoCSUUCSR0iTRDUwREEAUbLiwrSxEURHcV/K8IIoqr iII0C2UVEbALiCCIivQWqkCIhA5JaAkkIR3+3zsnb5jc914Iu7L7/6/O5zI5c+bMmZnfnDkzd969 F68ZEREF+flXLl++XFBQeEEL5/LlK1euFFy+7HA4CvinQp6T0BwY+U6m/uvKETFfJXzNWPSgBMn/ guDv62t1xMvL64qzN9BO0s1fQRmINY6ayHI4/BwOVwE9MLku+mwckv4Oh8kUoHUVNgVo1jVqAhmT thUxkzYxnSwJYdZSEvmg/HwLaG8fHyzX2+HAoqUp3r6+Bbm53t7eBQUFPsTKqLV2HxFy2iYpsAhS MbVKEBnT6nWDREBgdYpb+IIywcTa1Zz1sCFJpXoMhEYeIlvpITJrd/IK/+rqhNAx2boBxRCiRQuY yjXTJFL11BSjBnHcBBiBr5e3N/7E4l+xzN1iGvpsSemhzjcxtWVpGd0OVw5ZBDovQcMNiHogQZyh NXFHWEvqgnokCnU5eyFVwBTCjPUYSBGyzGEwmZ74IqNzIQjYsWXIQKwvILaC8ir8BWuMGjExUt1V kq4ds3GQMcV0WavmokH3R7Ol8zophNbvqoosV1hh6iKiQZpE7CmY9Qpti7UAhKCJKs3UtC3XF5St FS8/30chK9Vjy0Ds8PcXB8LqKA6E9mHXdFJMSZor3bP1U8uIQp1r8qVxMuDSPm0FUkraKjSxDTI4 pjYt4BZuV6b0RSs3iT+NHXtb165VatYU5veLF389f/4va9eaMiaOwh8+cWKn++8PDg4muXvr1i/e e2/DN9/oIj7dQ0OBtSAvD6x9/f3FX8uSaMXAfeWKrI/iRrBtXAmttPYiakaQq2kIBLjEBWk+HC2m y0ojzA5DE2wcM0mu1q9krYqAWyoSjk1AizFO0jDhEIuk3ggI/+l33723b9+Q0FAtVrtevfZ3371z x47zx45pJoS0VogxCxZ07NHDz4+2WKFKjRotO3Y8lph46pdfME0kqcvadfj4+WHa2RkZArcgrn2I EJaYt7d1KV2oFK0kta1BCC2xlqGEiLnyycI6xLqVYisqPomArkjaYFYkSsxmiLzmS5YkiWmYXNB1 27UDL4hLly6NHTTo7ipVNv34I0nsdMDIkRBuw+39+t3aoQNZGDJFKAiYFOn39NMwpS/esEhYvoK9 x+XLWenpwA3tHxTkFxgI4r5+fsQ+XL6+Pj4+hXCrxlHQxFp3QFCQWGS0WMnhlvZpxCHkQqEOUqOu 1wa3ztUCZkGYWkD4tO3WO+4Q+uDevdvUxP/4nXeEU/2mm3RxG9GuSxfh4C4gKAjiELUbNGDkJAv7 RH9hEMvNzcq6eOYMMcgK3MgQWB4FbtO0KSzdg+DSrUej0JqjUdCSUqvmS9JEU1A2Y2RMAalFYltF qDWDzoUwgyQllzj9/HmdK+3UyezMTE3biJq1awtHxgb6yIEDwtEjZ7kO2cBJBiACKKadkZp6ISUF 64YTHBrqHxyMaQvclqUr2rJw5Ulokwl3gBNldOo+SJc0rBQxxTRfABI0BWKUmFhr2iYj7dfVkRSd olBiaYPISNuklI6XT5uWevYsyToNG8bcfTeSf3j8ccndunatQO8ay7JJQbIkXMrIECK4dGkhpOrC bP4I6Jg2ZXLz8nLT0nzT04NCQjBt4M7PycnPzcXbsClhK+Kl7tQZCauU86bmqi4nxYpvr8aZJX+p y/JfziCgyMZGYy2bE42yuT+xyYgaXSO1226mEEC5CGgxKYXwuKFDn3zxRWb9uNmznS1yfPzuu5+O GyfC0h0dV4yM1GIQGmthhlWrJhxbRWYRBwYLgvkFBWlpaY60tKDQ0NKBgSCOEFjjW0y4MW7rNhLI DMSBjC5ZzCKKryaonhbroCVhCtxkmYhrfDXiCNiYok0zpYe6nwKQrlETUgt9i4yOLhcWpvlC1IqO hpDWmgqhy1StqoV1LZojpYgt13HNIGNyMS3tVHJyyunTFzIyADqwdOngsmXF2HEmuG/xJ/54FW9v /6IuJVDBrX0FDbJd9BBkubSkFha+xKVUW0FZXzA06CZTZqzmaBnBwlY7SdEfHRs78LnnylWsiB94 6f77e1WpsuSjj6iCTcWzCxZAuBa8eOqUapQVkatjRRZGUsrkWFu9ImkjQVMY9qzc3PTc3DPseAID SwUGYuMgjhTQ41Ws/bjYdW6uzcbFWkWJjNw1zfyawrRHEJRmaivWsJp8oU15OLqIYNShf3+541j7 7bcHNm5k+L8YOVJuQ8C6SlTU2YQE0aPjnMRETUNY890Ip0+ehEM7Lf2WkzXyiifBiCuHnWZ29vns bAyQzV85lkp//0A/PxxLQH5+JuesamPuo05crViduFpYc5Pp9CQaR0Gcpmg3omnpv3gSmd0UJ3ga JLJMKAVHVaIIXzjkYiOmTGnn2nV6/36qRhW5yUeO4LIp0rht27UuQMPH/JkEAcHBGmW9BrIqokcu qbQwNncgRTKKJihJ50GZkJGbm5qbC2psV4IDAjDzYB+foKAgNoWAfpkZAO55Fkoccwvo+H5x5QI6 ZSUIlJ5wl0ollkGiAVKE4pQiS4IeMK3ZmVP41wTXHJgM526hRqNGwmckKteqJcVO7d9vCmudxw8f BmimQuPu3Q8sXQpffDpEwsqVNKair6+b7Z0uX0KC3spIguPZzMzEc+f2nz4df+bMkdTUE3l5aWoz XrpcuQohIZXKlQsqUyawVCnL8AMC8Oast3hz7dBRBTTEXIwBblouEOQSvhDEVCoxRXQpsyC5ciEp MjoGL2hinD6xvg6vXy+9btujR0yPHvB7TJokzuTQvn0pGzfCaTVgwKykJK6hCxaQJGxZtEhK3Tl4 MJzo7t2btGgBR4rQBoLEilSRq0WzspkbCaTcTlsUaRvHyi7m55/Lz3dkZtKfAF/fcgEBPgEBgWzJ fXxKKfeCHow908tL3Lr8pmMpd56JY/u6LpSI5YrfgC/tFsvVfdBJCGkPkgTKMgDa9uFIETOWsj/P nbujS5eYDh0Ad+i77zq4VOCO/NupUwVWf2cLyRHO3n/8Y0enTpQC3xlJSWYRaOaEv5eXbqTkuolt KLuRcMcSS2RI6EBGfv55Bbr4xEBA9/ev5Odnwx01QM/mPZubJmKKwFHOHUJwl6pQC/QEEzvtOgRl cnXfTEDhIyDFLRUqmCPxZZ8+B0eMiL3rroiGDSV367Jl6+bMObNhg3bBhcWcE4Xkwj59To4e3ebh h/EhJA9u3bpyzpwjixczYyzlHMzZfjO0TvK4H/Hwm6HZMdZDHWi6dI+YoMUEaC0mfODmIgjuwTgQ b292LzgymJg8g1RKnYCTBHpLklun/PwcZeO0UKNvGgF16aAbIBydJc3TYkJ4YtIat1kolxmm5xl6 TNqmn9qDXX8ztAl5SuqmawFPzdICmmC6cYGfzLvTap3knhMBlMBkAxPCBsbbO4gB8PEpzwD4+gZ6 e5dxqvDldolLFZQBAH0y9QCgxNMYIKaREn2MK92RZVk44EtLPPVIsvBFIiZFiOG7DYgh7CnXbZFf jSkoW7aqXJjolSQx/uNcbq62JprInA0uir7ldtQ9apCPTxn1YxtKZABEW0YWPxdbgXkgkwBaViDx Qtrdg7J4EolVIStiPGyeXbIYGAklxI6O+MmPs86C1/2XmjQcEJK02YtbpWLRZpaGXszczEIzV0pu 7kluiFQGGAn6+b6+5b29xfzJYQYQMwmsYQgJAREObcx5IGqZDRB6QkAzGH4FBXmcIuTn89OSzAxp iUwO1x2BqLLF0jwbkySz0xoVc6dh0q4FhKPVCcoSkyVEMd7Kk0L4rtBrYRm/EKd+4TOclsXm5x9T M0ALC4G20srjB3h5seeBWc7buyynkr6+HIQxEnAC/f1lPZDByPLyCjVmhlYoo+Lv4yPOii0pWbJm aBlNyIB5+/lBBDBgeXkMHkMIx2qEGYq5BddipjvTTIFDJ02imCwtpi1ac0xCNGg9MmlEACYrO2Os c+GTZKsDYZ0u5+UVOhEpoGLZP5RSx7y+V66wnYcd7FyBw9XYwGEwGOAMflb18oIgma0GA6Kcclws LMwbiRkwP8Y1JycnIIDRwGRxWQE8WKB++6Z51wjXnDVmD93qEksHHU+heJQ9lTL5rm0QT0pM7ea2 TE9HimfiQ5QbyVKjohXu5xcAhwNkbQE9MmYQZfz8zPUWSWaPDBh3D4U3Ac6RI/caQBeeNdsqLFmS cU5RPqHcteRNvwHoEkwmHBNKc9XiZw+KnHaWsv0FrLLK6GSwQdkyXec9F1VI0ISTYZWyBbEGkYS+ qPY8psxZEkUHzMy1gDYPlWw+mqRt3MzCxdC4Tu6IBjz3XJmKFWc/8wyz2xZoMT9CXFK2I2aiLQhQ 4AiTDvNztGkO0GSB7wlldFUdjvDIyI41azZq1qxseHhgucJhTTt16si+fRu3bElITMQ8I5VpC8q2 lpQwaQ6GpgV90aCZ1GLOG8n9J29YUCQ2IlqgJQkKaQ7HSYejy513Pvjmmzc1bMgoDipTJjU9XdqB MYJRkioGsqHh4Y3uuKM8xyA1avDrZ6nwcGn6sQMHODNLOnHi57i4wwkJuFoAFQ8Ayqf4qaly5bbd ujXr1OmWtm3Dq1eXZthirITat33//fgRIzbu3FnTme2KgjPnBv61gMZb6wv/XZI7Q1egpY2Hla94 +vPP2zzwABy6emLv3iebNQtUx3u4acYAvJp37ty0S5dmXbpw/GiB4fkQHCXxW7Z89tZbny5cSEHG 5qjD8dq0aT369/cr5TpPPCLVMyYGrMWu/38DjUUnOhy3tWr13I8/8szCVy+8cN9LLwWHhb3epcuK lSurKQQOOhwdOnce8NprtWNiYBSPrw2zFbNmjRg8GF/8QGzsjPXrr6ssqrJTU1uFh2fm5ZVXeq8X a7fewNbC4pM+d5fhxupqULsSa18iBIXJs2KlRj8QRFLT5OANjjgcjwwZMmzRoiPbtg2sX7/b44/X adfu8MaN00aN4pSFhmLLsa1bv7p6dfkqVSwbLtaKVW1FoshbbkneufO7Awe+WLWqrDq4kWyadzIh Yc9PP703efJNtWtzu/H80KFbv/5617p1iQkJ+VeuVImIQNI3KOjs/v1Lfv65iiom3SlSQbGJ65V3 VWYtMwKla15JOJRPVnero2fPbjdw4No5c/oPGjT4zjvbDhhA8dkDBmDpTPkLak0bpw7FTbX5ly9f OHly/86ddRo1qnzTTTOGDDl1+DACbLzK8NN7hQr1YmLad+4cFh3NwNSIino0Njaibl0E8jIzN//w w+pFi/asW7cvISHe4cBUn580acfKlVPnzhWzlYpimzad/vHHEdHRrbt1K79w4fXastnaf4W2gPYU sA7rB0CX82jksVAQpPBxdQ/2+ubN4TEx7z3yyJx581o4HH/98ktw2fH555vi43EaSLL6DRsyRG8J kpOT13CKuGZN3K5dB1NS2FfMT0pK2bfvpZkzZUPGkkiQjQfEjJkzuzz66E1NmvR85BFO0xdMnrxu 2bKDycmy22VnArJr168PKl169tix0JHOxRlYv9m5s2r//nibqk2bysaGxv/74bYDbVo3t/x00u32 joYKyhUqVHjjl19A8O+33vrT5s30ZMSsWbJMzXnsMR6sREyMOoPD8/T09OPHU5KS4jdtilu27Ehi IiiD6Tvr14eHh//tgQci1O6CSmXvQcwGA2tl4sM8u2/fEzNnHlu7NtHh4HmAqrDUedDPDsejDz0U 1bo1fvyjvXtjnUZALrWDewY/GV+5cv7AAQZGNshgTaAXArokFa8wkiwbh6SrJExXYbOgCFhAY33a B5XQdVJfgsPRpEaNF+Ljr/j5PV+//u74eDbOt0RFNRs0CJ3Lx47dfe5ctLo9JYldr5w3b/2XXzLl 2aux1Qv18+N0H5cy7c0368bGrpg+/YsNG+ojqoLs4YjZxk0cNapj375XcnOnvvHGwby8SIejqWHs bEKahISM//TTC2fPslrWc9qyU5N1F37PH/7Akff+zZuha+oMJ2pusXNlunK0pmKyRAYBC+gSBuvO x+Go5O9Pn39xOOrVqzdmz54ziYlP1avHZoDpjwH2+eADZE4fOPDWSy9ZRui0aAjATc3MJGY8CPxc iyXizbs+/fTxn39+4cknMdJzzvsX4GgXG9utb9/uQ4Y41EHE2F69UvLyGklZFVtKlPy0Vaugn7v3 XprB0MKUQN82OhwdK1d+6Jln4Kz58UesG6YWcAr+O/5aQJvuwqSlfnw0jw+AcpfevUvVrbtm+vSE 8+dBefyuXVlZWbPuvbdUSEj7cuVyg4Mb3HbbTbGxaNi/eDF3InXKlTsdH6975eeEWNQy/RuEh4/8 9ltQ7ta4MRi15Nfihg3rN29ev337Fh06sDaKJAqnDB/+3uLFgrIw0cad0W6H438eeqhey5arPv10 5caNdfz85Od2kTlAFX5+s1evJkktK7Zti/gPoUwD7HeG1p0LwfgpC5SZ4A+//Xb7xx6jwA/z5/vn 5LTt08crKOjS6dP8tFq6alXL+ahdoHgefDHr0sk1a566/XZMGFB0SFVmSxJ7/2DPnuoNGix9992d cXEdunWr07JlWESE6bsunj//06JFy2fPBkQ8MkUYNkzjlDrcANYOPXu+tGABjzl89uabO+PjD65Z ww6EdYJhw6V0joycvmiR3J0+0qIFQEf+Z4HWt4WFhAE0D96Bco8JE9qPHGlCoIHzRID76AYNcNyV jL6lKKPu9dxzkR071oiIYNPmWhxw4zdv5ln5HUuWbNm06TBj5lz3NMrs/IaMG3f3gw9WUDfff+nY cekPP6CKtU5Cs8jIno89NnjECJK05KNXXhkwZgzbIT29RKx4N1J8bmFNJf5jdx22gtyJVK1Z87Zn n7Xxr5l8NTZ23cGDpgWhin6OXbWqSceOUvzEgQMbly7l4eAQX9+z586xgz516lTaL7/wSwqrFvhi m2gwAx6sWuXKH2zYoB0LA3P+4sVGTZvWKl++Qnh4aLVqzbp2je3QQZvFwhkzRowZwyJJEOz+/bFU rZrgjHT7hBHIrcGFC98MG5ZWUBDdrl3zP/6RA9wtK1eWdb6sgdj506djunaVPTI3LMe2bj15+PDG zZujim5XkxyOMS+8oFHG0ILUezXrly1bu3cvM50FEP+AnynHgZxaWp2Nsv6KMTK9psycqVGGXyY0 dO6WLTTb9F1S8EpW1ugnn3x99mxQRicauCzLcsYiJhyTNmVMWmRskqLT1KxpU/Iah0qI4j1Yczi/ eT0urvLNN0+85Zbtu3eXdtbJcWhjX9/xp08DNAvOoMaNqYYdCOs7gQ0mSQn4jY79+j00ZAgLppNn /QUgDp5WfPjhdx9+uC8lBZ/OLTsxexhbQBXj8cSwYX+ZPt2WZUuyifzs/fc/fOWVHcnJEc6fYGwy v3qS5pljZtNvnXVYNyZ0V4VCQnEwk7T8/OMOR/0KFSacPBlau/bEmJg9u3fXUDvQABXnOBzPrlhR uWFDSs/o0ePoyZNVjN8m2J7rIxHGZtGuXS15rSM2Nv3YsYCycutg7eLLhoXd0rnz3UOGREZEZKWm 7j1xgh0FfgO4GSoCffBWqhjC77ZuvXz27K3duln8nBxWQiXiYAVO3LXrx2XLvnr77QnDh3/w2WeZ GRnVVed1G0TyBsW0sJhgHwPw0tJn8vJw0DffdVefqVO9/P1fiY4+kJBQS70DLMXwBne2aRPdqRNF 9i5e/O3mzeTWa9XqVFzcJZ5n1IpUb7nBk13zucOHe0dH12ne/PEJExo736VBlt+tuw8dyrXu668X vPoqOw3cNAoxbaoDawIEKx5P8tHOzydNevnVVzECleM4n5SUnJ7OfoPg6txF5j8Y27d3+jz6WE5O 8zvu+POKFV7qTSxQ5jCMaZinGis+AaCf/+qrRj170u0Pe/ZctnnzjFWrjsfHv8aOWwGt7ZFdHeb5 SXY2D4P9rW3bVRs2MCEInXr06DNqFBthlSoSLV+48IMXX2S7VkthLRPzFNAHBX2t7uZ7VKu2Oz2d 2xw5EmFUuMQCiij6v5Fwb++nFcr9V61iYuakpY2rWfNIQgKLlaAsLcey6tWoAcokmf5//PTTj5OS uM0FZZ7W1eYslnjO4Xjy7bd9AwI2LVz444YNUWrpwxS/Wbx4cKtWI+65Z/f339sA6dq798d79jSI igJcghg1BvvstGkk1378MShHq1WOJZQLK0ZGA+1KiBIduyVMJrSZFIU2tSVnWkADk9JZGGVkZlYK De2/fDlpzsunx8ScOHYMWxbzhKkJ30B2JYUBEGf26zd+0CBQ1kul5LEMdqhX7zb1ehMnTboMNl5L nfKsWLp0UKdOwJ2wYYNTn/UXf9X+9tvZaUgA5dvDwzmMJckTE0721b90WwxfWBoUkiatc23CpozQ xKaMrknzJdetjK0Wu0Xn5eTQgz9/8w2dzDpzBpQPHT0aYYBLebFWLAhn8smoUef27ds2f/4TFSsu nTcvUt2S2DCgHU+pJ4jZ/O1LT69WdEcB3FFqPwfcfdu0ef3Pf05WR9LS0DxjH4mL6P7EE8KfN2UK TsMMGhqYQmvCNcuVI6pc+SXkaKw9ydt9dE4mZ+4Fj27alJmc/MWgQcdPnw5T59FixRpBSaIdB8LO N0M1ky0BHIIWY08iyX5Tp17Jy3v7mWeAlYv1TWKVfzVCT6I6Au01bNhjL78cWLbsy337zl24kPGj IpSvTkoKCg+f2L//m3PnNjIquqri/wwl0OvYDrQshlmZha+JllVvwHH84Qq0YEq/sp0WpDkCtBRB AD7eA3vkdpz9uOSCtRk09AzAGXWa0Sw8vH2PHt/Om3dJPa5IKSpaEhfHjrN7q1bs07ULMvXcOFr3 ThO6g66VyqQ3+V7TqrDxtd6pkkuA5h1CwJX3DOXgvxigKU7dXMwaaYQJtG4WYsKX6m1Aw7RxWD+x Yu7o2G9LFkPF+0ic4qMTx2VqE506ZpIVk6vFXAndWk0go70BaoXGGgjE+nd4NlFSKTEBI2AfwU9U VkJ5P19e6QFiK20E641B6xDvOnb6GmWthlG169V5LoS2aMkhCZRcBD0A7N7S1RooKGs0dQ8BVzMp aPIlSWwOgEYTgvZzUQUBAhBlSUeJ7ESpFD6dgiMGywGyPL+qClkRDzMS86kq4cgTkd7+1rhYLPMm RSR+lbgYlF1hpS0aUGq3JaU9wCFACKAwBUohRMaV1ugzISQIDJRFGxXJRRJA4ZDLZQJKKfOHU2g4 slXL5Q92q4yXsjk+PjxFzwvFklvASyS8Bkhx29Ok1lMGHkIx5qntwkNRN2wbjpI0mSboUt6sxTIb Z/BEk6+RhUYMF0QVBAjx7xLbZr0ScRPhSIFUYCUbGmcgF0yQ5c6OVyjAlFxi+aKPmLP1yQK4yMh9 NwU8YV2MebpplGIVMza2IjYDt+WSlKltYu0qA0fcgghrZHGjAiWwiqm6ltVTRHwCAmK2PNarkS2k FbiCrIWyO2Q11ugRZ8INhwX0v+g6UOEWAtvY6Cns2k9Xi7bJSBVuK0KtDVm04V4B2kTW1hjL6lQQ ZLU3MG3WhmyhhZYAWcuTKDfNG39Uwq0cSQvoXyu4BcJULhYHx2bCtiQCphshKVBqVVoPbjFYwQoB rMUgS5YET8gCMQI2b6BtttBIQVCtbNpmxWDdIgvTS31KxjJnebXC2Qbr779i3Ta71q5DBgAj0gDZ cHS1aJuPFg1S3PQJ3CKRZZmNCqbZ2pAlH7PFSWqbtQhJO10tsCLmp54h8YQsAoBrQ9ZfPW5pma36 KUNOJsScEeYcjVK0s0ig6iLpXyNhGwC3Kt1CjyRlBV9ZynC4Glxz5JAkySUGS1I7WYtWXQVZgVKb rTZYS6bo8mUl1bJm2qzpCqwi6uMZEGKzPN8iwlJdYaXOGWABDbj6ENq0aJNG7HqDaV+U1ebsVo/N hC855QVf7gPZxsqaZqpyi6xevjwhiwbB0dwYFI8sRUBTXIHQeIPikS0Cul4MaZy8zWFatDUAxu8A VOA2eDJY7TqklM0APZkwEBPE83JbyLKGE7CpEregXQHyhUYkmwTlCmAWWq675csqYtgss96Sd65g snyRLAZZqdEqxffTDNuHD8Rs9awq/P0hRLLQdXja1SF9zYAKT1gXU9Y0YWhJgn415RxwERa+xvOV NFwjKzaLwaJf+wGYWIYnbyBYaEQAUcOKEhuyNieLAGAJXlaNHpAFU2oXZEU5knAo4iUWDXW9gdLX C65b1yEQgy/OAfu1fpZV8MkBC60CXHMzK97AQlMZ73Uhizb6b/pZknpjYNWldmNFprw49xIgS3F/ vjBKa53WfYV2K9zFLOw+mgIlCab/vV7E0a9NGM/ABb68Zc+5QZb6vi9octgCChBAWdh0A9l/YmPg arPiZGmMRtatzQpTvIHNZhkky+Uq900Msrx/KJxCi9YeiVtzS8JwxCZNlg6YsAmu5kOU0HWIj9Ym jP1W5m5YvU6MEuv1YPVmvcw1sVmJyS0eWUHKGhjDyVJKOHrLdV3LFzoLt8zKz1otUeZvmSe0n582 WCoSm5XarVgctDJtqxmoEqBJXDN4QvmaBbUAroNzfbxEdfVIaqhqDeBiJsgEOr2BeQNW6FhLcJuA waKETrLlgsAM9ZbL4js3s4Xm6dxywRdhkaEl4mHFct0ii6TI8HgiAhas6Fe14yisb+aq6qxYaYMg YPt218FUlbxfK6YCDncwZNa3yICAqr6+eAnOD7NU1XwbUoylEFPpuULW5AgiYEf35Cl3cQU00tzM ipOF6Ypsof9xIisKXW1WODabFYMVQArBVf7XhNWqtCiyJC0mu0AwlS/QmO7CpEW1Gdu2aGaWWxr3 zSN3QFy9VKmqgYF8hgCxHL5r7+sbJH02kCULODQihcZSdPmyZFxuE2CWLV++Ymgov8KlXbxIshBB 4w7ChqyfuoVDTOCwihjeQCOr2yD18olFfkqFLi7w1QqFrJYRy7UsuuTB7c7BbXFczQW1l6hWvnz1 4GBxsnIyW0qmm3MpN5GVjhWzMdB+Vi9cEHzf+fypU68tWMBL9I89+qh8qQPgxBXQPGR4jLhMWBhf RPRS0/yK+g5LIV26NI8gWxaWnZ1z9mxOXp7VDLFZVqDgYP8yZaSPPBOwbcWKY0ePXkpJSTa+K8gw l61atXHr1jGtWmHDbn2CHWgGwy1wJrN4fy2+GNNtUqFC9fBwfC6Gwxd79PuXgqy8lnJNZG1bLtPJ 0qSKVaqEV6z41XffzZ4+fXV6eozDMXD48LJly2bn5IgkH5oMU29xpaamHt63b39i4oW0tPPHj/OY iu5RxbCwGo0bW+/wtmwZ3bQpOwce3bM+Bc+tBocYPj489brmu+9++vbbo3Fx8oaSLmsS3Ls2b9fu lbfe4k09ky+0/SFH65dDgvEguutvhgK0uasTmpjljoAV14uICAwN5TF1kqbNkgRcTzaLwSJg3tqa yKJHPICl09+/Tv36GSkpT//tb8v27o1Qr4Z3a9hw+iefXLxwgV7g0MMaNcpJSvpu9eqdq1bxqvPB hAQmGb9DSgAXaImFg5LqTZsyVPfw7p78vOfj80LPngsWL5ZSPOAgP8E4dRT5y0/+J5TClXv21G7U qEge6+E1P15FAbAWcLXrICngijpoVjxQ5iHlBrVr85gAaOp1Wa9RcsplOlmKa5sVTC0OrtPzxgCB 0qGhVRo0WLNgQa//+Z/alSr1ve++me+/n5yX9+nbb9/Wp8+ZI0eYLqF16/IC0tQpU+LUJy0BlGMT OeeTWSztl1g4ghSPZr/Sr9+zH3xARbzm1V29gERxAgJ6qCIVAkcVXyJkGIlEhyOmcuVlx4/LZNX5 1wb6mhZNW9PUfQfvAUbXqcNXprLVT2LmlktA1Le2YpjClBhkteHTOAtrtU7KeiXeVhauihERpcLC 3ho3buSMGQ+0a/fh0qVjunadtGHD061bv7Zu3UX18E3Z2rUFI244QQQceVQB4wAmgiAOIgKf4hVa Okjh6OMKCravWcMDmJ3LlOGVA+QxVUIEb4lFRVWPirrtvvs+GjXq/KVLT771Fo47OyuLLykwaeKU R8L853/ySadevUSzxDKWJufaNNsWGk2gMFbMFVmjRkzz5kEVKhRkZ7PiBbnbGACcDVk0aG+gkRVM SYowdiE3YIJyFb5Fl5v7hwce+GLt2heGDx89Zcq3kyeDMs8FDpw4kQWGLW3pSpXOHT8+ZvBgmKAM oPRcZj0v07Vs1WoL78ElJ8+eM4cVMlQ9jHohKSklLe3Qjh28J3oyOZnh4WXIrOXL8fvQZYOC/tSx Y0z37rFt2mifMGjgQF5utJyMEbYsX/7Xhx8+mp6+fdkyO9C4M9qnj0mNUtcmk9lXBATc16lTuPpG avalSwFlymhXQPmreDldAUxtzhDaVIWQSaCRRcC8AavYqFH2oUMdbr1125kzPFjDy4c8AfyserVt cL9+vNCZe/FiQEgIO7Cvpk3boZ6j3Olw8D7LnXfd1fL++yPr1uWDExhg/erV2zVvbsNI95ZHAKcs Xbpx0aL1P/54t3LZre65J6wSD/9cDbFhYXiYJyZMuMpSVMuuXV9///3bH3zw4qVLtizruQ4+jaW5 rvto8whNizETMeToqKh299zDS/QXzp8HFF6VEDMsNMYSeAONrPgNTrmowjyLISnODm+QmpBQT71f FB8XJyv7y4MGxQOlj8+Tkycjyf/OwUIKEVqjRkSpUs0w2ObNG9WvX79FC15yKVMe63Tc36LFiczM F99/H9ptyFcY1WrQoOvAgU07dOB/j7CJ8bghI/3OyJHhtWrZskia/6+ImWt3Ha7bO/HRUoZOsB6K p7vt3ntv7dr1Um4uX+6VF1hc/SwbAwqeSU3N4BP2QUEMgKCGzWqPrG3W9TYBeetldIawUqXk7dtv btYsvEKFtVu2ADpq13/xxUL1MtYzEybQAEyE7bCg8uATT9z7yCN8PpyK2NjyYgCnVAiMefjh7xIT wUh7ABOLQz///I+XXprxww+3h4T8afRoM0vTvD7S99VXeUl00Ouva6ZJfKLMPLpJE5MJbV8MPW3v EMUvg/JZzjNLlerx1FM1mjaV/3eALPEGslPGCcCxNgbVq895/31eJerWs2elatVgWibg73/u5Mm8 7OzQSpUCmcjHj/NWqKCvTwz0PQLvMbIRBj6enuZjM0zkr7Zv16ZwV5Uq3ycn923Y8B979mgmtXgK sjzyfYSp69bJPlIkeSdj++rVX33xxeq5c3erm6xvVq1q7nx1zKZNKk0+dKh8rVqulfLYcbs2bSgS Fx/P9xTMsnaLNvNstKBcKyqqx8iR5WvU4L/ZAVnTz8oOgVKB5cuD6YzRo/laAb6Mu4MZq1ezM53x l7/whtuIcePCmjTJTUqaPWZMh/vuq16nTn42rqhwtGRyfDZr1smTJ/v07s2nVfasXdu5U6fmlSrN njePJ4nPp6Yi/ONnn/EiEMtdm/vuSzlyhFuM6i5bV7P9WCIbNXYpb69ZAx9wk375ZfOGDfvWrNm2 di2qaCcBhZPnzHGLMhOC9xUZ2hd69w6qWDE9NVV8kSpnRazA/Xr2RI/1rYuiKJNrt2h5yNH1hgUk sOW2997bacQI7/z89DNncAUYLy4eezRdAXBXatx4xuOP/2XmTObPCV6rHz++1/PP//TOO52GDsVN HjxxIqRatYejo79MSFiutkHARFMsK2Oye3nJckTZduq/n1n7ww84KzYMBTzjmm7dOrCf5ZSKQwdO UVj92Bs81b37G19/TZbbwLuIXWvVOpie/sro0Xy3+rvFixMPHEhJTz/qlKZVdUJCbn/44cdHjHDF CCne6F+zZMlfBw6k+j91716xfv1ejzwi7+SKDqxh8AMP4LsZqtUu5oyMZdH07YqIFz2bFh6L4UX1 LvgDQ4d2fOaZi8nJWZcuBYeHWy4VlI2NARyKlK9ff+PChdhyC4djqxpeUOZbHAOHDiV37tSpoPz8 nXeCMm0KlN/2ecREnXIh8HKfPiz6lAVNccHsXqvy+TP1dQ4E5FBH36HxggUvfI+YOpUsW2ATMmn8 +OS4uPh9+0CZXfPj48eLDMiSxBc3bNGicrNmbdu1a9Kmjc1CRZKNzaS///3b+fNPZGVRhK+CsL0x K0rcvv3tqVMXz51rmYDD8bfRo90OlWXRll82L+MWnJIX+F8SHI6Hxo69+bHHMlNSOLXwtHwhXKZK lYzz5++qXx97oWLukb4+eBAP061OHVYhOrY8LW0n26ZOnWg0NwLLjh0zv/Elvhg99dTO97TxQTvk pSdyA0KT2CAzT4Fsg3MTQsGr4fLl/k2a8PkOwbRZVBTTMbRsWT60WDY0tFpMTOWwsMo1a/Iq2NUi LhQg9mrbdndWFu3h1pdHtsctWeLn65t08mTqmTMp8fF8MWHHtm20U8LoESP4P+CcqSJ/LYt23dKJ CFbGZ/RwGv1mzbpl4EBeHsZX+Kv3AwuXL33KpWwZQFm4+NwA5oMGbo6/3LUL5uhevUCZDj/12mv4 h4nKtJFg82uiTJGw2rXnTptWxtubl3NfXby4fUBAR7W2SHuIeQt807JlSeoI5blhw4Jr1bo1Jsb1 EIceje/bV38khVFJV2cXbfr0qe3875a0Tk8ESsYNGQLK7RXKDMjxlBSegRd5GXU9SpX9/F6bO5cX nDxpc2DRUytXnhIWNrlChTdDQyeGhEwoVerVgACuMQ7HcIdj+5QpVJmWmMh18ejRiydOZCYlYdpc WefPc+VcuMCVm5GB2OZly7A4bsNurVTp7KFDzI1P33iDJEcseAMECHcEBMDpGhnJ/yRCEhnFLhK1 qFu3iZ8fb9LpXCHOHjsGH+t4XH2vokiZookPX36ZKqiX9sTyxRbVKqn3vYkT086cKSruPjV52DDq aqeKowolxHKhSi7aM2rQIBrmXoWT6x5osH6RzjhRFlhdkb186RIbNS7rO/15eeicOmIELbuFT3Kp ijfMn09SGjSmRw8E4MtIjOrcOXHPngn9+tmamLx3r8if3bvX2cirf//csCG5aDi2Z89VrgeKGhHu Urmy1AheIC5065CQl4YP375pk4eiV9n0iCJALKMlcGMrf2re/OUBAz56993ka0EsuiygebvCZtF/ 9/MD5XWjRmFHmKoYLAQXsF7OybFg5b/+cDFGARoQ0b5r1SpQpmXPtm5Nh8WIsDJhEnPRXBRKU8CO dgvKzB5X5UwXyWV4JHfrqlUywFeBcVJfz5iB/l5RUbR57ZIlPZo2pSyQgRcXrZLkM927Fw/39MGD 0UO/MAgsg0nGdeHcORogbXBWeI2/DlB2dR14jM9697aK8oV3Ba4nZG3qP5s2jWY9dccdEPQKGril z0vmzHmpd284zMdV8+Y93a8fU1gXhyPyzAZQ1nyTwF0I0Oikz3in5x96yLW3cBhU0cYLpmgQGRrA MIsGsMbANdw0JunQIbMuoQ/GxdFgzF+sAT0SXCWvybG7Dtz0SIfj3TZtpKQne/GkN/PiRXHB9Icm 4iiRBCC6LRwsiLbaiq/7/HPJBQhmjy1XkkCGEhy9NYWDgqCZ+24lYTKlqB1jdBVYtmAB00jgBmvx vxaafn6uTgCLIWvWyJGueq6XU8R1sB6O4asa7GE99LYk2nevWSOoMd0s+YIC7I7mcuHUXDVgSlgW uaDM0uoqIBzUIiOaWX8Ym+IlGQmcm1sZRhrrxqugDTGwZvCgcU2mPOZMLpXOGj3a5P9zdBGgWQMx 5wOffPLP6dKl8GLgopNMZLyEJ2joMJ3BhxaDsqj6ZPz4h9u1w5CR9DiFCwpAzULnWmaIhrmTJuk1 A0xtQIt94DdcLV13reTEVdfBevhXfrzp37/khUsoSZdkJ+dWnok8+O67PVmfWQQ9ZtItjQwAXYcN 5udPHjtWLNc0DpyyzDMb+m4rLQmz8M4QUf6fWf4Xq7+eOyc3Ix433v8fMuiO69FaMQ3nd+4fli17 cNAgfaPIaU+X8uVvvu22Yo5QilHomsUkswILM7faPd58878AZbpzXSgjz+nEI0XP28BhOQdn6iEQ C6B/OVjHQJwNpZ4+Xa9Bg4YDB/7LCv97FPyKKFsg84//WZMDjY6TJl2vIfz3gHrje2IBffHs2QbN m9d0/i/iN77S32INFtC5ly834Furv4cbiYD3pQsXyleo0FD93wc3sqLfum5vfhyKuvNO+aXutw7G jey/5Trq/m7ONxJi0e3Nz9W17rrrxlf0W6/Bu1J0NL82/dZhuPH9967enp/Efg83HAHv0Dp1OBm4 4fX85ivwth7jdHmO7zcPy68PgHfFxo1/fa2/a3RBoETfL3Ap9TvjuhHwPXTo0HUX+r3A9SPwvxln EEMbgd5bAAAAAElFTkSuQmCC "/>
</svg>
