{

  "_comment"  : [
    "====================================================================================",
    "             jsCoFE Front-End Configuration for virtual machine setup               ",
    "------------------------------------------------------------------------------------",
    "  This setup differs from ordinary 'local' setup by using SGE schedulier (qsub),    ",
    "  installed in the virtual machine.                                                 ",
    "===================================================================================="
  ],

  "FrontEnd" : {
    "protocol"         : "http",
    "host"             : "localhost",
    "port"             : 8081,
    "externalURL"      : "http://localhost:8081",
    "exclusive"        : true,
    "stoppable"        : false,
    "fsmount"          : "",
    "userDataPath"     : "./vm-cofe-users",
    "projectsPath"     : "./vm-cofe-projects",
    "facilitiesPath"   : "./cofe-facilities",
    "ICAT_wdsl"        : "https://icat02.diamond.ac.uk/ICATService/ICAT?wsdl",
    "ICAT_ids"         : "https://ids01.diamond.ac.uk/ids",
    "bootstrapHTML"    : "jscofe.html",
    "maxRestarts"      : 100,
    "fileCapSize"      : 500000,
    "ration"           : {
        "storage"   : 3000,
        "cpu_day"   : 24,
        "cpu_month" : 240
    }
  },
  "NumberCrunchers" : [
    {
      "serNo"            : 0,
      "name"             : "vm-host",
      "in_use"           : true,
      "protocol"         : "http",
      "host"             : "localhost",
      "port"             : 8082,
      "externalURL"      : "http://localhost:8082",
      "exclusive"        : true,
      "stoppable"        : false,
      "fsmount"          : "",
      "capacity"         : 8,
      "exclude_tasks"    : [],
      "fasttrack"        : 1,
      "storage"          : "./vm-cofe-nc-storage",
      "exeType"          : "SGE",
      "exeData"          : ["-cwd","-V","-b","y","-q","all.q","-notify"],
      "jobCheckPeriod"   : 2000,
      "sendDataWaitTime" : 1000,
      "maxSendTrials"    : 10,
      "jobRemoveTimeout" : 10000,
      "maxRestarts"      : 100,
      "fileCapSize"      : 500000
    }
  ],
  "Emailer" : {
    "type"            : "nodemailer",
    "emailFrom"       : "CCP4 on-line <ccp4.cofe@gmail.com>",
    "maintainerEmail" : "ccp4.cofe@gmail.com",
    "host"            : "smtp.gmail.com",
    "port"            : 465,
    "secure"          : true,
    "auth"            : {
      "user" : "ccp4.cofe@gmail.com",
      "pass" : "ccp4.cofe.2016"
    }
  }
}
