{

  "_comment"  : [
    "====================================================================================",
    "              jsCoFE Front-End Configuration for CCP4 server setup                  ",
    "===================================================================================="
  ],

  "FrontEnd" : {
    "protocol"         : "http",
    "host"             : "localhost",
    "port"             : 8081,
    "externalURL"      : "http://ccp4serv8.rc-harwell.ac.uk/jscofe",
    "exclusive"        : true,
    "stoppable"        : false,
    "fsmount"          : "",
    "userDataPath"     : "./cofe-users",
    "projectsPath"     : "./cofe-projects",
    "facilitiesPath"   : "./cofe-facilities",
    "ICAT_wdsl"        : "https://icat02.diamond.ac.uk/ICATService/ICAT?wsdl",
    "ICAT_ids"         : "https://ids01.diamond.ac.uk/ids",
    "bootstrapHTML"    : "jscofe.html",
    "maxRestarts"      : 100,
    "fileCapSize"      : 500000,
    "ration"           : {
        "storage"   : 3000,
        "cpu_day"   : 24,
        "cpu_month" : 240
    }
  },

  "NumberCrunchers" : [
    {
      "serNo"            : 0,
      "name"             : "serv8",
      "in_use"           : true,
      "protocol"         : "http",
      "host"             : "ccp4serv8.rc-harwell.ac.uk/jscofe",
      "port"             : 0,
      "externalURL"      : "http://ccp4serv8.rc-harwell.ac.uk/jscofe",
      "exclusive"        : true,
      "stoppable"        : false,
      "fsmount"          : "",
      "capacity"         : 16,
      "exclude_tasks"    : ["TaskAmple","TaskSimbad"],
      "fasttrack"        : 1,
      "storage"          : "./nc-storage",
      "exeType"          : "SGE",
      "exeData"          : ["-cwd","-V","-b","y","-q","all.q","-notify"],
      "jobCheckPeriod"   : 2000,
      "sendDataWaitTime" : 1000,
      "maxSendTrials"    : 10,
      "jobRemoveTimeout" : 10000,
      "maxRestarts"      : 100,
      "fileCapSize"      : 500000
    },
    {
      "serNo"            : 1,
      "name"             : "badb",
      "in_use"           : false,
      "protocol"         : "http",
      "host"             : "badb.rc-harwell.ac.uk/jscofe",
      "port"             : 0,
      "externalURL"      : "http://badb.rc-harwell.ac.uk/jscofe",
      "exclusive"        : true,
      "stoppable"        : false,
      "capacity"         : 60,
      "exclude_tasks"    : [],
      "fasttrack"        : 0,
      "storage"          : "./nc-storage",
      "exeType"          : "SGE",
      "exeData"          : ["-cwd","-V","-b","y","-q","all.q","-notify"],
      "jobCheckPeriod"   : 2000,
      "sendDataWaitTime" : 1000,
      "maxSendTrials"    : 10,
      "jobRemoveTimeout" : 10000,
      "maxRestarts"      : 100,
      "fileCapSize"      : 500000
    }
  ],
  "Emailer" : {
    "type"            : "telnet",
    "emailFrom"       : "ccp4.cofe@ccp4.ac.uk",
    "maintainerEmail" : "ccp4_cloud@listserv.stfc.ac.uk",
    "host"            : "lists.fg.oisin.rc-harwell.ac.uk",
    "port"            : 25,
    "headerFrom"      : "CCP4 on-line <ccp4.cofe@ccp4.ac.uk>"
  }
}
